[
  {
    "id": 1,
    "image": "img/monoliths/monolith_01.jpg",
    "number": 1,
    "title": "Parade Ground and Drill Shed",
    "body": "<p>The fort was designed for a garrison of 2,500 however there was normally no more than 400 soldiers based here.  Soldiers practiced military drills on the Parade Ground and smaller groups could also train in the Drill Shed now used as the café.  Underneath the Parade Ground are large water tanks that supplied the island with fresh water in an emergency and for fire fighting.</p>",
    "hasAudio": true,
    "audio": "TRACK01.mp3",
    "mapImage": "img/maps/location_01.jpg",
    "directions": ""
  },
  {
    "id": 2,
    "image": "img/monoliths/monolith_02.jpg",
    "number": 2,
    "title": "Punishment Block",
    "body": "<p>This is the only purpose built cell block in the fort. It opened in 1860 and was constructed from local limestone using convict and military labour. The prison cells were cold, grim and miserable. In 1916 this block held two prominent Irish rebels, Austin Stack and Con Collins. The crew of the Aud, a German gun-running ship captured while smuggling arms to support the Easter Rising, was also held on Spike Island.</p>",
    "hasAudio": true,
    "audio": "TRACK02.mp3",
    "mapImage": "img/maps/location_02.jpg",
    "directions": ""
  },
  {
    "id": 3,
    "image": "img/monoliths/monolith_03.jpg",
    "number": 3,
    "title": "Shell Store",
    "body": "<p>The thick walls of the Shell Store protected the gunpowder from enemy attack and from accidental explosions.  A Blast Wall, now removed, surrounded the store for greater protection.  In 1847 the store became the first prison hospital but by 1849 was used as a dormitory for over a hundred child convicts.  Aged between 12 and 16, they were crowded into two dark and cold windowless rooms.</p>",
    "hasAudio": true,
    "audio": "TRACK03.mp3",
    "mapImage": "img/maps/location_03.jpg",
    "directions": ""
  },
  {
    "id": 4,
    "image": "img/monoliths/monolith_04.jpg",
    "number": 4,
    "title": "No.6 Bastion",
    "body": "<p>This is the sheltered side of the island.  Below are the ruins of the settlement that was home to many of the island’s residents.  As well as houses, there was a school and a church that formed the centre of this small community.  Some of the houses were occupied from the early nineteenth century.  Following a prison riot in 1985 the village was evacuated and the houses were abandoned.</p>",
    "hasAudio": true,
    "audio": "TRACK04.mp3",
    "mapImage": "img/maps/location_04.jpg",
    "directions": ""
  },
  {
    "id": 5,
    "image": "img/monoliths/monolith_05.jpg",
    "number": 5,
    "title": "North-West Casemates",
    "body": "<p>The casemates were built in 1810.  They are bomb-proof barracks and stores with vaulted roofs.  Built against the ramparts of the fort, they have very thick walls and small doorways.  Their main role was to protect the soldiers and stores in the event of an attack on the fort.  In the late 1980s the casemates were converted to new four-man prison cells and were used from January 1990.</p>",
    "hasAudio": true,
    "audio": "TRACK05.mp3",
    "mapImage": "img/maps/location_05.jpg",
    "directions": ""
  },
  {
    "id": 6,
    "image": "img/monoliths/monolith_06.jpg",
    "number": 6,
    "title": "Officers’ Quarters",
    "body": "<p>The army Officers’ Quarters was completed by 1817.  When the fort became a convict depot in 1847, this building became the warders’ quarters.  The Governor of the jail, his family, and the warders lived on the first floor while beneath them over 200 convicts were held in miserable conditions.  It was in this block, in 1848, that John Mitchel was probably held.  The building was destroyed by fire in 1916.</p>",
    "hasAudio": true,
    "audio": "TRACK06.mp3",
    "mapImage": "img/maps/location_06.jpg",
    "directions": ""
  },
  {
    "id": 7,
    "image": "img/monoliths/monolith_07.jpg",
    "number": 7,
    "title": "No.2 Bastion",
    "body": "<p>Fort Mitchel (originally called Fort Westmoreland) is a star-shaped fort with six protruding bastions.  Inside this bastion is a gun that fired shells of six inches diameter.  In 1943, due to the risk of enemy bombardment, the gun was moved here from the top of No.3 Bastion.  It was surrounded by a concrete bunker, which provided greater protection.  Prisoners and staff restored the gun in the 1980s.</p>",
    "hasAudio": true,
    "audio": "TRACK07.mp3",
    "mapImage": "img/maps/location_07.jpg",
    "directions": ""
  },
  {
    "id": 8,
    "image": "img/monoliths/monolith_08.jpg",
    "number": 8,
    "title": "Soldiers’ Quarters (A Block)",
    "body": "<p>This building, with its bomb-proof roof, was originally a Soldiers’ Quarters and was later used to imprison over 600 convicts.  From 1883 it reverted to a soldiers’ quarters and in 1921 the British military used it to hold Republican prisoners captured during the Irish War of Independence.  Later known as ‘A Block’ the building was burnt down during the prison riot in 1985 and has since been derelict.</p>",
    "hasAudio": true,
    "audio": "TRACK08.mp3",
    "mapImage": "img/maps/location_08.jpg",
    "directions": ""
  },
  {
    "id": 9,
    "image": "img/monoliths/monolith_09.jpg",
    "number": 9,
    "title": "Water Tanks",
    "body": "<p>The storage of fresh water was vital to Spike Island as many of its wells were contaminated by salt water. These roof-top tanks stored fresh water for the fort.  When the island came close to drought, rather than use fresh water, convicts carried salt water from the harbour to the fort to clean the sewers.  They may also have mixed salt water with marine soap for washing.</p>",
    "hasAudio": true,
    "audio": "TRACK09.mp3",
    "mapImage": "img/maps/location_09.jpg",
    "directions": ""
  },
  {
    "id": 10,
    "image": "img/monoliths/monolith_10.jpg",
    "number": 10,
    "title": "No.3 Bastion",
    "body": "<p>The building of Fort Westmoreland began in 1804 and was completed by 1860.  It bore the same name as an earlier fort on Spike Island, in honour of a British Lord Lieutenant of Ireland.  As military technology improved, two six-inch guns replaced the cannon originally mounted on top of this bastion.  In 1951, the fort was renamed in honour of John Mitchel, the Irish Patriot who was imprisoned here. </p>",
    "hasAudio": true,
    "audio": "TRACK10.mp3",
    "mapImage": "img/maps/location_10.jpg",
    "directions": ""
  },
  {
    "id": 11,
    "image": "img/monoliths/monolith_11.jpg",
    "number": 11,
    "title": "Fort Mitchel",
    "body": "<p>From here you can see the only entrance to Cork Harbour.  The harbour was an important maritime centre for the British Empire and it was vital to defend it for trade, military and naval purposes.  From this strategic position, Fort Westmoreland maintained the safety of the harbour although its guns were never fired in anger.  The four guns that are now on No.3 Bastion are the Saluting Battery for Cork Harbour.</p>",
    "hasAudio": false,
    "audio": "TRACK11.mp3",
    "mapImage": "img/maps/location_11.jpg",
    "directions": ""
  },
  {
    "id": 12,
    "image": "img/monoliths/monolith_12.jpg",
    "number": 12,
    "title": "Battery Observation Post",
    "body": "<p>Together with the nearby forts of Cove, Camden, Carlisle and Templebreedy, and the five Martello towers around the lower harbour, Fort Westmoreland was part of an integrated harbour defence system. From 1943 this bastion served as the Battery Observation Post relaying, to the six-inch gun positions in No.2 Bastion and No.4 Bastion, the range and direction of targets to ensure accurate shooting.</p>",
    "hasAudio": true,
    "audio": "TRACK12.mp3",
    "mapImage": "img/maps/location_12.jpg",
    "directions": ""
  },
  {
    "id": 13,
    "image": "img/monoliths/monolith_13.jpg",
    "number": 13,
    "title": "Flanking Galleries",
    "body": "<p>The dry moat is one of the most impressive features of the fort and integral to its defence.  Flanking galleries on each side of the bastions enabled the defenders of the fort to fire on an enemy in the moat.  There was no means of escape; it would have been a killing ground.  Secure entrances, called sally ports, allowed the defenders to enter the moat from the fort and engage with the enemy.</p>",
    "hasAudio": true,
    "audio": "TRACK13.mp3",
    "mapImage": "img/maps/location_13.jpg",
    "directions": ""
  },
  {
    "id": 14,
    "image": "img/monoliths/monolith_14.jpg",
    "number": 14,
    "title": "Prison Hospital (B Block)",
    "body": "<p>During the mid 1800s this was the prison hospital.  As the Irish people struggled with the hardship of the Great Famine, crime and convictions increased.  Prisons became overcrowded and disease took hold.  More people died in this building than anywhere else in the fort.  It was later used as stores, offices and kitchen.  The building was damaged during the riot in 1985 and later restored by the Prison Service.</p>",
    "hasAudio": true,
    "audio": "TRACK14.mp3",
    "mapImage": "img/maps/location_14.jpg",
    "directions": ""
  },
  {
    "id": 15,
    "image": "img/monoliths/monolith_15.jpg",
    "number": 15,
    "title": "Mitchel Hall (C Block)",
    "body": "<p>Completed in 1851 by convict and civilian labour, this block initially housed convicts sent from Mountjoy Jail in Dublin. The central hall was the Anglican chapel and then the community hall.  Later it was used as army Married Quarters, and finally prison officer's quarters and prison school.  During the prison riot in 1985, prisoners climbed onto the roof and remained there for twelve hours until they surrendered. </p>",
    "hasAudio": true,
    "audio": "TRACK15.mp3",
    "mapImage": "img/maps/location_15.jpg",
    "directions": ""
  },
  {
    "id": 16,
    "image": "img/monoliths/monolith_16.jpg",
    "number": 16,
    "title": "North-East Casemates",
    "body": "<p>Between this high wall and the outer wall of the fort are the north-east casemates.  When they were converted to modern prison accommodation in the 1980s, it took workmen over seventeen weeks to bore through the thick walls.  The area behind the wall was the prison exercise yard and is now the Gun Park.  Here, in 1991, prisoners formed a human pyramid in an unsuccessful attempt to escape on to the ramparts.</p>",
    "hasAudio": true,
    "audio": "TRACK16.mp3",
    "mapImage": "img/maps/location_16.jpg",
    "directions": ""
  }
]
